[gd_scene load_steps=5 format=2]

[ext_resource path="res://Game.gd" type="Script" id=1]
[ext_resource path="res://PlayerIndicator.gd" type="Script" id=2]
[ext_resource path="res://SelectedPieceImage.png" type="Texture" id=3]
[ext_resource path="res://board.png" type="Texture" id=4]

[node name="Game" type="Node2D"]
script = ExtResource( 1 )

[node name="PlayerIndicator1" type="TextureRect" parent="."]
margin_top = 240.0
margin_right = 1080.0
margin_bottom = 360.0
script = ExtResource( 2 )

[node name="PlayerIndicator2" type="TextureRect" parent="."]
margin_top = 1560.0
margin_right = 1080.0
margin_bottom = 1680.0
script = ExtResource( 2 )
__meta__ = {
"_editor_description_": ""
}

[node name="Background" type="TextureRect" parent="."]
margin_top = 360.0
margin_right = 1080.0
margin_bottom = 1560.0
texture = ExtResource( 4 )

[node name="SelectNone" type="Button" parent="."]
margin_right = 1080.0
margin_bottom = 1920.0
flat = true

[node name="Pieces" type="Node2D" parent="."]
position = Vector2( 0, 360 )

[node name="SelectedPiece" type="Sprite" parent="."]
position = Vector2( 0, 360 )
texture = ExtResource( 3 )
centered = false

[node name="UndoButton1" type="Button" parent="."]
margin_top = 120.0
margin_right = 60.0
margin_bottom = 180.0
rect_scale = Vector2( 2, 2 )
text = "Undo"

[node name="UndoButton2" type="Button" parent="."]
margin_left = 960.0
margin_top = 1680.0
margin_right = 1020.0
margin_bottom = 1740.0
rect_scale = Vector2( 2, 2 )
text = "Undo"

[connection signal="pressed" from="SelectNone" to="." method="clear_piece"]
[connection signal="pressed" from="UndoButton1" to="." method="undo"]
[connection signal="pressed" from="UndoButton2" to="." method="undo"]
