[gd_scene load_steps=4 format=2]

[ext_resource path="res://theme.tres" type="Theme" id=1]
[ext_resource path="res://Menu/Fliporstill.gd" type="Script" id=2]
[ext_resource path="res://Menu/Menu.gd" type="Script" id=3]

[node name="Menu" type="Node2D"]
script = ExtResource( 3 )

[node name="Fliporstill" type="OptionButton" parent="."]
margin_left = 240.0
margin_top = 720.0
margin_right = 360.0
margin_bottom = 744.0
rect_scale = Vector2( 5, 5 )
text = "Flip"
script = ExtResource( 2 )

[node name="Play" type="Button" parent="."]
margin_left = 270.0
margin_top = 900.0
margin_right = 378.0
margin_bottom = 940.0
rect_scale = Vector2( 5, 5 )
theme = ExtResource( 1 )
text = "Play"

[node name="Label" type="Label" parent="."]
margin_top = 1878.0
margin_right = 271.0
margin_bottom = 1892.0
rect_scale = Vector2( 3, 3 )
text = "This project is licensed under GNU GPL v3"

[connection signal="pressed" from="Play" to="." method="_on_Play_pressed"]
