<?xml version="1.0" encoding="UTF-8" standalone="no"?>
<!-- Created with Inkscape (http://www.inkscape.org/) -->

<svg
   width="120"
   height="120"
   viewBox="0 0 120 120"
   version="1.1"
   id="svg827"
   inkscape:version="1.1.2 (0a00cf5, 2022-02-04)"
   sodipodi:docname="黑將.svg"
   xmlns:inkscape="http://www.inkscape.org/namespaces/inkscape"
   xmlns:sodipodi="http://sodipodi.sourceforge.net/DTD/sodipodi-0.dtd"
   xmlns="http://www.w3.org/2000/svg"
   xmlns:svg="http://www.w3.org/2000/svg">
  <sodipodi:namedview
     id="namedview829"
     pagecolor="#505050"
     bordercolor="#eeeeee"
     borderopacity="1"
     inkscape:pageshadow="0"
     inkscape:pageopacity="0"
     inkscape:pagecheckerboard="0"
     inkscape:document-units="px"
     showgrid="false"
     units="px"
     inkscape:zoom="3.7059484"
     inkscape:cx="48.975318"
     inkscape:cy="61.252877"
     inkscape:window-width="1366"
     inkscape:window-height="711"
     inkscape:window-x="0"
     inkscape:window-y="345"
     inkscape:window-maximized="1"
     inkscape:current-layer="layer1" />
  <defs
     id="defs824">
    <rect
       x="-0.027796417"
       y="0.68221654"
       width="120.05764"
       height="119.65575"
       id="rect19362" />
    <rect
       x="1.4016212"
       y="0.93975028"
       width="117.42649"
       height="117.55947"
       id="rect12578" />
    <rect
       x="-0.3957994"
       y="0.78351227"
       width="120.30392"
       height="119.55963"
       id="rect5796" />
  </defs>
  <g
     inkscape:label="Layer 1"
     inkscape:groupmode="layer"
     id="layer1">
    <text
       xml:space="preserve"
       id="text5794"
       style="font-style:normal;font-weight:normal;font-size:40px;line-height:1.25;font-family:sans-serif;white-space:pre;shape-inside:url(#rect5796);fill:#000000;fill-opacity:1;stroke:none" />
    <text
       xml:space="preserve"
       id="text12576"
       style="font-style:normal;font-weight:normal;font-size:120px;line-height:1.25;font-family:sans-serif;white-space:pre;shape-inside:url(#rect12578);fill:#000000;fill-opacity:1;stroke:none"><tspan
         x="1.4023438"
         y="239.1"
         id="tspan25232"><tspan
           style="font-size:26.6667px"
           id="tspan25230">將</tspan></tspan></text>
    <ellipse
       style="fill:#feda59;fill-rule:evenodd;fill-opacity:1"
       id="path23006"
       cx="59.694939"
       cy="59.896645"
       rx="59.926624"
       ry="59.688816" />
    <text
       xml:space="preserve"
       id="text19360"
       style="font-style:normal;font-weight:normal;font-size:93.3333px;line-height:1.25;font-family:sans-serif;white-space:pre;shape-inside:url(#rect19362);fill:#000000;fill-opacity:1;stroke:none"
       transform="translate(13.620244,0.51210298)"><tspan
         x="-0.02734375"
         y="94.481605"
         id="tspan25234">將</tspan></text>
  </g>
</svg>
